5d,bc,00,01,01,01,00,10,00,00,00,00,00,00,00,00,00,00,00,00,00,00,00,00,00,00,00,ff,ff,ff,00... ROGKEY
5d,bc,00,01,01,01,60,10,00,ff,ff,ff,00,00,00,00,00,00,00,00,00,00,00,00,00,00,00,00,00,00,00... ENTER
5d,bc,00,01,01,01,70,10,00,00,00,00,00,00,00,00,00,00,00,00,00,00,00,00,ff,ff,ff,00,00,00,00... RSHIFT
